Raça ou cor em São Paulo - uma leitura a partir dos microdados censitários
…
`summarise()` has grouped output by 'v0011'. You can override using the
`.groups` argument.

# Show the result
race_by_ap_2010

# A tibble: 1,860 × 6
# Groups:   ap [310]
   ap            raca_cor raca_cor_nome tot_peop_peso tot_peop prop_race
   <fct>         <fct>    <fct>                 <dbl>    <int>     <dbl>
 1 3550308005001 1        Branca               13619.      710     57.6 
 2 3550308005001 2        Preta                  978.       49      4.14
 3 3550308005001 3        Amarela               1921.       95      8.12
 4 3550308005001 4        Parda                 7133.      359     30.2 
 5 3550308005001 5        Indígena                 0         0      0   
 6 3550308005001 9        Ignorado                 0         0      0   
 7 3550308005002 1        Branca               15653.      764     69.9 
 8 3550308005002 2        Preta                 1360.       62      6.07
 9 3550308005002 3        Amarela                588.       26      2.63
10 3550308005002 4        Parda                 4786.      240     21.4 
# ℹ 1,850 more rows
…
Crie uma coluna e compute a população total das AP (soma de todas as raças mais os casos “ignorado”);

7

Observe os dados dispostos na nova forma e note que a base apresenta tanto os dados absolutos quanto os relativos;

8

Observe os resultados para as dez primeiras áreas de ponderação, considerando apenas o número de pessoas (volume) para cada cor/raça (perceba o arredondamento dos valores praticado), e,

9

Observe os resultados para as dez primeiras áreas de ponderação, mas agora considerando apenas a proporção de pessoas para cada cor/raça.

# A tibble: 310 × 14
   ap        branca parda preta amarela indigena ignorado branca_prop parda_prop
   <fct>      <dbl> <dbl> <dbl>   <dbl>    <dbl>    <dbl>       <dbl>      <dbl>
 1 35503080… 13619. 7133.  978.   1921.      0          0        57.6       30.2
 2 35503080… 15653. 4786. 1360.    588.      0          0        69.9       21.4
 3 35503080… 22803. 8443. 1531.   1644.    171.         0        65.9       24.4
 4 35503080… 17379. 8837. 1622.   5675.    379.         0        51.3       26.1
 5 35503080… 18996. 8334. 1049.    829.     56.5        0        64.9       28.5
 6 35503080… 27442. 6309. 1212.   1962.     22.7        0        74.3       17.1
 7 35503080… 28848. 4790. 1045.   5697.     20.0        0        71.4       11.9
 8 35503080… 16871. 4180.  676.   6940.     25.4        0        58.8       14.6
 9 35503080… 13897. 3394.  680.    610.     25.3        0        74.7       18.2
10 35503080… 22012. 4791. 1412.   2564.      0          0        71.5       15.6
# ℹ 300 more rows
# ℹ 5 more variables: preta_prop <dbl>, amarela_prop <dbl>,
#   indigena_prop <dbl>, ignorado_prop <dbl>, tot_pop <dbl>
…
